…
# Data Analysis

``` r
(world_prop <- world_pop %>%
  mutate(char_22 = as.character(population_2022), char_23 = as.character(population_2023), 
         first_23 = substr(population_2023, 1, 1)) %>% 
  group_by(un_continental_region, first_23) %>% 
  summarize(count = n()) %>% 
  mutate(prop = count / sum(count)))
```

    ## `summarise()` has grouped output by 'un_continental_region'. You can override
    ## using the `.groups` argument.

    ## # A tibble: 42 × 4
    ## # Groups:   un_continental_region [5]
    ##    un_continental_region first_23 count   prop
    ##    <chr>                 <chr>    <int>  <dbl>
    ##  1 Africa                1           18 0.310 
    ##  2 Africa                2           15 0.259 
    ##  3 Africa                3            7 0.121 
    ##  4 Africa                4            4 0.0690
    ##  5 Africa                5            6 0.103 
    ##  6 Africa                6            4 0.0690
    ##  7 Africa                8            2 0.0345
    ##  8 Africa                9            2 0.0345
    ##  9 Americas              1           17 0.309 
    ## 10 Americas              2            5 0.0909
    ## # … with 32 more rows
…
``` r
(e_counts <- world_prop %>% 
   mutate(region_total = sum(count)) %>% 
   ungroup() %>% 
   add_row(un_continental_region = "Africa", first_23 = "7", count = 0, prop = 0.0, region_total = 58) %>% 
   add_row(un_continental_region = "Oceania", first_23 = "6", count = 0, prop = 0.0, region_total = 23) %>% 
   add_row(un_continental_region = "Oceania", first_23 = "8", count = 0, prop = 0.0, region_total = 23) %>% 
   mutate(E_count = region_total * benford$P_d[as.numeric(first_23)]) %>% 
   arrange(un_continental_region, first_23))
```

    ## # A tibble: 45 × 6
    ##    un_continental_region first_23 count   prop region_total E_count
    ##    <chr>                 <chr>    <dbl>  <dbl>        <dbl>   <dbl>
    ##  1 Africa                1           18 0.310            58   17.5 
    ##  2 Africa                2           15 0.259            58   10.2 
    ##  3 Africa                3            7 0.121            58    7.25
    ##  4 Africa                4            4 0.0690           58    5.63
    ##  5 Africa                5            6 0.103            58    4.58
    ##  6 Africa                6            4 0.0690           58    3.89
    ##  7 Africa                7            0 0                58    3.36
    ##  8 Africa                8            2 0.0345           58    2.96
    ##  9 Africa                9            2 0.0345           58    2.67
    ## 10 Americas              1           17 0.309            55   16.6 
    ## # … with 35 more rows
…
