…
# Data analysis

``` r
(bike_fahr <- bike %>% mutate(instant, temp_F = 1.8*(temp*47-8)+32))
```

    ## # A tibble: 731 × 17
    ##    instant dteday     season    yr  mnth holiday weekday working…¹ weath…²  temp
    ##      <dbl> <date>      <dbl> <dbl> <dbl>   <dbl>   <dbl>     <dbl>   <dbl> <dbl>
    ##  1       1 2011-01-01      1     0     1       0       6         0       2 0.344
    ##  2       2 2011-01-02      1     0     1       0       0         0       2 0.363
    ##  3       3 2011-01-03      1     0     1       0       1         1       1 0.196
    ##  4       4 2011-01-04      1     0     1       0       2         1       1 0.2  
    ##  5       5 2011-01-05      1     0     1       0       3         1       1 0.227
    ##  6       6 2011-01-06      1     0     1       0       4         1       1 0.204
    ##  7       7 2011-01-07      1     0     1       0       5         1       2 0.197
    ##  8       8 2011-01-08      1     0     1       0       6         0       2 0.165
    ##  9       9 2011-01-09      1     0     1       0       0         0       1 0.138
    ## 10      10 2011-01-10      1     0     1       0       1         1       1 0.151
    ## # … with 721 more rows, 7 more variables: atemp <dbl>, hum <dbl>,
    ## #   windspeed <dbl>, casual <dbl>, registered <dbl>, cnt <dbl>, temp_F <dbl>,
    ## #   and abbreviated variable names ¹​workingday, ²​weathersit
…
