…
``` r
df_all_accid <- df %>% select(date, year, doy, dow, all_accid) %>%
  group_by(year, doy) %>%
  summarize(all_per_day = sum(all_accid)) 
```

    ## `summarise()` has grouped output by 'year'. You can override using the
    ## `.groups` argument.

``` r
(df_all_accid)
```

    ## # A tibble: 2,192 × 3
    ## # Groups:   year [6]
    ##     year   doy all_per_day
    ##    <int> <int>       <int>
    ##  1  2012     1         249
    ##  2  2012     2         243
    ##  3  2012     3         329
    ##  4  2012     4         382
    ##  5  2012     5         393
    ##  6  2012     6         442
    ##  7  2012     7         259
    ##  8  2012     8         208
    ##  9  2012     9         376
    ## 10  2012    10         403
    ## # … with 2,182 more rows
…
