…
## Question 2

There are many “unusual” values, including tax exempt properties. Next,
I’m filtering out these cases to get a new dataset, `property_rep`.

``` r
(property_rep <- property %>% 
   group_by(LUC) %>% 
   filter(median(GROSS_TAX) < 5000000, n() >= 5, LU != "E", LU != "EA") %>%
   ungroup())
```

    ## # A tibble: 172,654 × 4
    ##      LUC LU    GROSS_AREA GROSS_TAX
    ##    <int> <chr>      <int>     <dbl>
    ##  1   105 R3          3353     8422.
    ##  2   105 R3          3299     8719.
    ##  3   105 R3          3392     8552.
    ##  4   105 R3          3108     7818.
    ##  5   104 R2          3700     8536.
    ##  6   105 R3          6278    13836.
    ##  7   105 R3          6432    13481.
    ##  8   105 R3          6048    12235.
    ##  9   105 R3          4339     9411.
    ## 10   105 R3          4659    11032.
    ## # … with 172,644 more rows
…
