…
    ## # A tibble: 0 × 5
    ## # … with 5 variables: row <int>, col <int>, expected <chr>, actual <chr>,
    ## #   file <chr>

``` r
property <- property %>% filter(!is.na(TOTAL_VALUE), !is.na(LAND_SF), TOTAL_VALUE > 0, LAND_SF > 0)
```

# Data analysis

``` r
(property <- property %>% mutate(ward = substring(PID,1,2), value_per_sf = TOTAL_VALUE/LAND_SF))
```

    ## # A tibble: 162,536 × 5
    ##    PID        LAND_SF TOTAL_VALUE ward  value_per_sf
    ##    <chr>        <dbl>       <dbl> <chr>        <dbl>
    ##  1 0100001000    1150      784200 01            682.
    ##  2 0100002000    1150      811800 01            706.
    ##  3 0100003000    1150      796300 01            692.
    ##  4 0100004000    1150      727900 01            633.
    ##  5 0100005000    2010      794800 01            395.
    ##  6 0100006000    2500     1288300 01            515.
    ##  7 0100007000    2500     1255200 01            502.
    ##  8 0100008000    2500     1139200 01            456.
    ##  9 0100009000    2500      876300 01            351.
    ## 10 0100010000    2500     1027200 01            411.
    ## # … with 162,526 more rows
…
# Discussion

``` r
(property <- property %>% mutate(equiv_sm = 1000000/value_per_sf*0.093) %>%
  group_by(ward) %>%
  summarize(mean_equiv = mean(equiv_sm)) %>%
  mutate(rank = min_rank(mean_equiv)) %>%
  arrange(rank))
```

    ## # A tibble: 22 × 3
    ##    ward  mean_equiv  rank
    ##    <chr>      <dbl> <int>
    ##  1 04          133.     1
    ##  2 03          175.     2
    ##  3 21          277.     3
    ##  4 06          296.     4
    ##  5 02          447.     5
    ##  6 07          500.     6
    ##  7 10          594.     7
    ##  8 05          653.     8
    ##  9 22          775.     9
    ## 10 09          825.    10
    ## # … with 12 more rows
…
