…
``` r
problems(covid_vac)
```

    ## # A tibble: 0 × 5
    ## # … with 5 variables: row <int>, col <int>, expected <chr>, actual <chr>,
    ## #   file <chr>

``` r
covid_vac_s <- covid_vac %>% select(Date, Recip_County, MMWR_week, Metro_status, Administered_Dose1_Recip_5PlusPop_Pct, Administered_Dose1_Recip_12PlusPop_Pct, Administered_Dose1_Recip_18PlusPop_Pct, Administered_Dose1_Recip_65PlusPop_Pct)
(covid_vac_s <- as_tibble(covid_vac_s))
```

    ## # A tibble: 8,787 × 8
    ##    Date       Recip_County      MMWR_w…¹ Metro…² Admin…³ Admin…⁴ Admin…⁵ Admin…⁶
    ##    <chr>      <chr>                <dbl> <chr>     <dbl>   <dbl>   <dbl>   <dbl>
    ##  1 02/15/2023 Nantucket County         7 Non-me…    NA      NA      NA        NA
    ##  2 02/15/2023 Plymouth County          7 Metro      94.9    95      95        95
    ##  3 02/15/2023 Barnstable County        7 Metro      NA      NA      NA        NA
    ##  4 02/15/2023 Franklin County          7 Non-me…    95      95      95        95
    ##  5 02/15/2023 Worcester County         7 Metro      95      95      95        95
    ##  6 02/15/2023 Middlesex County         7 Metro      95      95      95        95
    ##  7 02/15/2023 Hampshire County         7 Metro      91.8    92.8    92.3      95
    ##  8 02/15/2023 Essex County             7 Metro      95      95      95        95
    ##  9 02/15/2023 Berkshire County         7 Metro      83.7    84.8    84.9      95
    ## 10 02/15/2023 Unknown County           7 <NA>       NA      NA      NA        NA
    ## # … with 8,777 more rows, and abbreviated variable names ¹​MMWR_week,
    ## #   ²​Metro_status, ³​Administered_Dose1_Recip_5PlusPop_Pct,
    ## #   ⁴​Administered_Dose1_Recip_12PlusPop_Pct,
    ## #   ⁵​Administered_Dose1_Recip_18PlusPop_Pct,
    ## #   ⁶​Administered_Dose1_Recip_65PlusPop_Pct
…
    ## 
    ## Attaching package: 'lubridate'

    ## The following objects are masked from 'package:base':
    ## 
    ##     date, intersect, setdiff, union

``` r
(covid_vac_l <- covid_vac_s %>% 
    filter(as.Date(Date, format = "%m/%d/%Y") %>% year() == 2021) %>%
    pivot_longer(cols = starts_with("Administered"), names_to = "Dose1_age_group", values_to = "Pop_percent"))
```

    ## # A tibble: 21,900 × 6
    ##    Date       Recip_County     MMWR_week Metro_status Dose1_age_group    Pop_p…¹
    ##    <chr>      <chr>                <dbl> <chr>        <chr>                <dbl>
    ##  1 12/31/2021 Bristol County          52 Metro        Administered_Dose…    78.3
    ##  2 12/31/2021 Bristol County          52 Metro        Administered_Dose…    83.1
    ##  3 12/31/2021 Bristol County          52 Metro        Administered_Dose…    84.6
    ##  4 12/31/2021 Bristol County          52 Metro        Administered_Dose…    95  
    ##  5 12/31/2021 Nantucket County        52 Non-metro    Administered_Dose…    NA  
    ##  6 12/31/2021 Nantucket County        52 Non-metro    Administered_Dose…    NA  
    ##  7 12/31/2021 Nantucket County        52 Non-metro    Administered_Dose…    NA  
    ##  8 12/31/2021 Nantucket County        52 Non-metro    Administered_Dose…    NA  
    ##  9 12/31/2021 Plymouth County         52 Metro        Administered_Dose…    82.8
    ## 10 12/31/2021 Plymouth County         52 Metro        Administered_Dose…    87.2
    ## # … with 21,890 more rows, and abbreviated variable name ¹​Pop_percent
…
