…
    ## # A tibble: 0 × 5
    ## # … with 5 variables: row <int>, col <int>, expected <chr>, actual <chr>,
    ## #   file <chr>

``` r
(papers <- papers %>% mutate(word_count = str_count(title, "\\S+")))
```

    ## # A tibble: 7,241 × 3
    ##     year title                                                           word_…¹
    ##    <int> <chr>                                                             <int>
    ##  1  1987 Self-Organization of Associative Database and Its Applications        7
    ##  2  1987 A Mean Field Theory of Layer IV of Visual Cortex and Its Appli…      17
    ##  3  1988 Storing Covariance by the Associative Long-Term Potentiation a…      15
    ##  4  1994 Bayesian Query Construction for Neural Network Models                 7
    ##  5  1994 Neural Network Ensembles, Cross Validation, and Active Learning       8
    ##  6  1994 Using a neural net to instantiate a deformable model                  9
    ##  7  1994 Plasticity-Mediated Competitive Learning                              3
    ##  8  1994 ICEG Morphology Classification using an Analogue VLSI Neural N…       9
    ##  9  1994 Real-Time Control of a Tokamak Plasma Using Neural Networks           9
    ## 10  1994 Pulsestream Synapses with Non-Volatile Analogue Amorphous-Sili…       7
    ## # … with 7,231 more rows, and abbreviated variable name ¹​word_count
…
## Question 3

``` r
(papers_long <- pivot_longer(papers_keyword, cols = -year, names_to = "keyword", values_to = "n"))
```

    ## # A tibble: 90 × 3
    ## # Groups:   year [10]
    ##     year keyword          n
    ##    <int> <chr>        <int>
    ##  1  2008 bayesian        13
    ##  2  2008 data            11
    ##  3  2008 deep             1
    ##  4  2008 learning        51
    ##  5  2008 models          22
    ##  6  2008 networks        10
    ##  7  2008 neural           7
    ##  8  2008 optimization     6
    ##  9  2008 stochastic       4
    ## 10  2009 bayesian        20
    ## # … with 80 more rows
…
    ## Warning: Using an external vector in selections was deprecated in tidyselect 1.1.0.
    ## ℹ Please use `all_of()` or `any_of()` instead.
    ##   # Was:
    ##   data %>% select(keyword)
    ## 
    ##   # Now:
    ##   data %>% select(all_of(keyword))
    ## 
    ## See <https://tidyselect.r-lib.org/reference/faq-external-vector.html>.

    ## # A tibble: 90 × 5
    ## # Groups:   year [10]
    ##     year n_papers keyword          n   prop
    ##    <int>    <int> <chr>        <int>  <dbl>
    ##  1  2008      250 bayesian        13 0.052 
    ##  2  2008      250 data            11 0.044 
    ##  3  2008      250 deep             1 0.004 
    ##  4  2008      250 models          22 0.088 
    ##  5  2008      250 networks        10 0.04  
    ##  6  2008      250 neural           7 0.028 
    ##  7  2008      250 learning        51 0.204 
    ##  8  2008      250 optimization     6 0.024 
    ##  9  2008      250 stochastic       4 0.016 
    ## 10  2009      262 bayesian        20 0.0763
    ## # … with 80 more rows
…
