…
## Question 3

To investigate if there is any pattern of flight cancellations depending
on the time of year, I first create a `canceled_by_doy` dataset with the
proportion of canceled flights for each day of the year (`doy`) and
`origin`:

``` r
(canceled_by_doy <- flights %>% mutate(flights, doy = as.integer(strftime(time_hour, format = "%j"))) %>% group_by(doy, origin) %>% summarize(prop_canceled = mean(is.na(arr_delay) | is.na(dep_delay))))
```

    ## `summarise()` has grouped output by 'doy'. You can override using the `.groups`
    ## argument.

    ## # A tibble: 1,095 × 3
    ## # Groups:   doy [365]
    ##      doy origin prop_canceled
    ##    <int> <chr>          <dbl>
    ##  1     1 EWR          0.0164 
    ##  2     1 JFK          0.00673
    ##  3     1 LGA          0.0167 
    ##  4     2 EWR          0.0257 
    ##  5     2 JFK          0.0125 
    ##  6     2 LGA          0.00735
    ##  7     3 EWR          0.0149 
    ##  8     3 JFK          0.00314
    ##  9     3 LGA          0.0308 
    ## 10     4 EWR          0.00590
    ## # … with 1,085 more rows
…
