…
dist_geo <- function (lon_from, lat_from, lon_to, lat_to) {
  geosphere::distGeo(cbind(lon_from, lat_from), c(lon_to, lat_to))
}

jfk <- airports %>% 
  filter(faa == "JFK") %>% 
  select(lon = lon, lat = lat)

(flights_dist <- airports %>% 
  filter(faa %in% unique(flights$dest)) %>%
  mutate(dist=dist_geo(lon, lat, jfk$lon, jfk$lat)) %>% 
  inner_join(flights, by = c("faa" = "dest")))
```

    ## # A tibble: 329,174 × 27
    ##    faa   name         lat   lon   alt    tz dst   tzone   dist  year month   day
    ##    <chr> <chr>      <dbl> <dbl> <dbl> <dbl> <chr> <chr>  <dbl> <int> <int> <int>
    ##  1 ABQ   Albuquerq…  35.0 -107.  5355    -7 A     Amer… 2.94e6  2013    10     1
    ##  2 ABQ   Albuquerq…  35.0 -107.  5355    -7 A     Amer… 2.94e6  2013    10     2
    ##  3 ABQ   Albuquerq…  35.0 -107.  5355    -7 A     Amer… 2.94e6  2013    10     3
    ##  4 ABQ   Albuquerq…  35.0 -107.  5355    -7 A     Amer… 2.94e6  2013    10     4
    ##  5 ABQ   Albuquerq…  35.0 -107.  5355    -7 A     Amer… 2.94e6  2013    10     5
    ##  6 ABQ   Albuquerq…  35.0 -107.  5355    -7 A     Amer… 2.94e6  2013    10     6
    ##  7 ABQ   Albuquerq…  35.0 -107.  5355    -7 A     Amer… 2.94e6  2013    10     7
    ##  8 ABQ   Albuquerq…  35.0 -107.  5355    -7 A     Amer… 2.94e6  2013    10     8
    ##  9 ABQ   Albuquerq…  35.0 -107.  5355    -7 A     Amer… 2.94e6  2013    10     9
    ## 10 ABQ   Albuquerq…  35.0 -107.  5355    -7 A     Amer… 2.94e6  2013    10    10
    ## # … with 329,164 more rows, and 15 more variables: dep_time <int>,
    ## #   sched_dep_time <int>, dep_delay <dbl>, arr_time <int>,
    ## #   sched_arr_time <int>, arr_delay <dbl>, carrier <chr>, flight <int>,
    ## #   tailnum <chr>, origin <chr>, air_time <dbl>, distance <dbl>, hour <dbl>,
    ## #   minute <dbl>, time_hour <dttm>
…
    ## `summarise()` has grouped output by 'origin', 'month'. You can override using
    ## the `.groups` argument.

``` r
rep_flights <- flights %>%
  group_by(carrier) %>% filter(n_distinct(flight) > 100) %>%
  group_by(carrier, flight) %>% filter(n() > 50) %>% ungroup()

(flights_load <- left_join(rep_flights, flights_load, by = c("origin", "month", "day")) %>%
  mutate(ontime = if_else(arr_delay <= 15 & !is.na(dep_time), 1, 0)))
```

    ## # A tibble: 271,632 × 21
    ##     year month   day dep_time sched_de…¹ dep_d…² arr_t…³ sched…⁴ arr_d…⁵ carrier
    ##    <int> <int> <int>    <int>      <int>   <dbl>   <int>   <int>   <dbl> <chr>  
    ##  1  2013     1     1      517        515       2     830     819      11 UA     
    ##  2  2013     1     1      533        529       4     850     830      20 UA     
    ##  3  2013     1     1      542        540       2     923     850      33 AA     
    ##  4  2013     1     1      544        545      -1    1004    1022     -18 B6     
    ##  5  2013     1     1      554        600      -6     812     837     -25 DL     
    ##  6  2013     1     1      555        600      -5     913     854      19 B6     
    ##  7  2013     1     1      557        600      -3     838     846      -8 B6     
    ##  8  2013     1     1      558        600      -2     753     745       8 AA     
    ##  9  2013     1     1      558        600      -2     849     851      -2 B6     
    ## 10  2013     1     1      558        600      -2     853     856      -3 B6     
    ## # … with 271,622 more rows, 11 more variables: flight <int>, tailnum <chr>,
    ## #   origin <chr>, dest <chr>, air_time <dbl>, distance <dbl>, hour <dbl>,
    ## #   minute <dbl>, time_hour <dttm>, trips <int>, ontime <dbl>, and abbreviated
    ## #   variable names ¹​sched_dep_time, ²​dep_delay, ³​arr_time, ⁴​sched_arr_time,
    ## #   ⁵​arr_delay
…
